<?xml version="1.0" encoding="utf-8"?>
<!-- Generator: Adobe Illustrator 15.0.2, SVG Export Plug-In . SVG Version: 6.00 Build 0)  -->
<!DOCTYPE svg PUBLIC "-//W3C//DTD SVG 1.1//EN" "http://www.w3.org/Graphics/SVG/1.1/DTD/svg11.dtd">
<svg version="1.1" id="Layer_1" xmlns="http://www.w3.org/2000/svg" xmlns:xlink="http://www.w3.org/1999/xlink" x="0px" y="0px"
	 width="2260.412px" height="35.397px" viewBox="0 0 2260.412 35.397" enable-background="new 0 0 2260.412 35.397"
	 xml:space="preserve">
<g id="Hole">
	<line fill="none" stroke="#FF0000" stroke-miterlimit="10" x1="511.699" y1="17.531" x2="591.533" y2="20.667"/>
	<line fill="none" stroke="#FF0000" stroke-miterlimit="10" x1="1610.549" y1="7.997" x2="1685.199" y2="15.164"/>
	<line fill="none" stroke="#FF0000" stroke-miterlimit="10" x1="952.457" y1="19.579" x2="873.133" y2="14.127"/>
</g>
<g id="ShortyGenerator">
	<line fill="none" stroke="#000000" stroke-miterlimit="10" x1="1958.324" y1="4.75" x2="1954.949" y2="4.75"/>
	<line fill="none" stroke="#000000" stroke-miterlimit="10" x1="1553.449" y1="3.875" x2="1557.699" y2="3.875"/>
</g>
<g id="Boots">
	<line fill="none" stroke="#000000" stroke-miterlimit="10" x1="2051.824" y1="11.125" x2="2057.199" y2="11.125"/>
</g>
<g id="Landscape">
	<path fill="none" stroke="#000000" stroke-miterlimit="10" d="M1685.186,15.16c13.004,6.604,28.127,3.34,44.313,3.34
		c13.688,0,27.375,0,41.063,0c9.406,0,20.646-2.165,28.982,2.904c8.6,5.232,11.805,9.148,21.764,9.096
		c6.215-0.033,12.338-0.165,18.463-0.777c8.037-0.804,30.822,0.604,36.381-7.223c9.324-0.799,25.438-0.023,34.928,0
		c31.738,0.081,62.615-7.021,94.262-7c46.979,0.029,92.57,14.461,139.393,12.699c26.832-1.01,53.393,2.941,80.033,3.996
		c9.9,0.392,26.303,3.255,35.436-1"/>
	<path fill="none" stroke="#000000" stroke-miterlimit="10" d="M1610.549,7.995c4.914-0.417-3.148,26.356,1.656,26.505h69.744
		c0.951-5.484-1.201-11.844,3.236-19.34"/>
	<path fill="none" stroke="#000000" stroke-miterlimit="10" d="M952.457,19.578c2.412-0.378,4.855-0.727,7.344-1.025
		c11.463-1.387,22.799-6.023,34.965-6.053c8.906-0.021,21.574,6.861,29.889,9.616c0.533-1.05-1.393,0.446,0,0
		c9.156,4.849,24.809,5.981,34.652,6.384c7.443,0.305,15.166,1.727,22.484,1.801c2.131,0.021,5.074-0.383,7.102-0.017
		c6.787,1.229,97.23,1.938,116.748,2.216c8.006,0.113,10.402-3.786,17.553-6.253c5.119-1.767,12.764-1.597,18.213-2.822
		c7.525-1.69,15.104-0.358,22.682-1.128c10.137-1.027,18.186-6.718,28.477-6.793c35.514-0.261,68.398,7.387,103.732,6.329
		c3.459-9.666,18.672-14.535,24.111-15.21c22.104-2.741,43.396-6.141,65.66-6.123c20.816,0.017,41.314,11.214,61.979,13.002
		c20.25,1.753,41.75-3.746,62.502-5.507"/>
	<path fill="none" stroke="#000000" stroke-miterlimit="10" d="M873.133,14.126c0,7.981,1.234,20.374,1.234,20.374h76.5
		c0,0,1.59-11.792,1.59-14.922"/>
	<path fill="none" stroke="#000000" stroke-miterlimit="10" d="M591.533,20.667c0,0,23.9,12.338,30.893,7.459
		c3.445-2.403,4.549-7.211,10.359-9.595c6.223-2.551,9.51-3.049,14.664-0.916c7.961,3.294,13.061,9.041,22.146,6.841
		c8.672-2.103,15.777-6.015,24.875-7.408c8.922-1.368,18.391,5.738,26.623,8.333c15.352,4.838,29.916,0.165,45.598,1.119
		c13.203,0.803,26.498-8,39.715-8c6.9,0,9.82,2.425,16.338-0.656c-0.277-1.621,4.867-5.836,4.678-7.189
		c8.74,0.051,17.104-2.557,26-2.225c6.498,0.241,14.047,3.086,19.709,5.696"/>
	<path fill="none" stroke="#000000" stroke-miterlimit="10" d="M511.699,17.531l0.334,17.363l78.166-0.395
		c-0.5-6.666,1.334-13.833,1.334-13.833"/>
	<path fill="none" stroke="#000000" stroke-miterlimit="10" d="M0.2,33.5c19.018-8.275,34.426-13.7,55.056-14
		c25.123-0.365,49.267,7.938,74.022,11c14.073,1.741,175.662-5.943,189.417-8.048c15.02-2.298,29.867-4.093,44.707-6.013
		c9.457-1.225,19.072,4.883,29.037,4.849c6.449-0.022,74.707,0.319,81.053,1.052c5.941,0.686,12.162,1.471,18.158,0.777
		c6.367-0.734,20.051-5.586,20.051-5.586"/>
</g>
<g id="Wall">
	<line fill="none" stroke="#7BFF3F" stroke-miterlimit="10" x1="333.5" y1="8.4" x2="334" y2="19.099"/>
</g>
</svg>
