<?xml version="1.0" encoding="utf-8"?>
<!-- Generator: Adobe Illustrator 15.0.2, SVG Export Plug-In . SVG Version: 6.00 Build 0)  -->
<!DOCTYPE svg PUBLIC "-//W3C//DTD SVG 1.1//EN" "http://www.w3.org/Graphics/SVG/1.1/DTD/svg11.dtd">
<svg version="1.1" xmlns="http://www.w3.org/2000/svg" xmlns:xlink="http://www.w3.org/1999/xlink" x="0px" y="0px" width="60.3px"
	 height="57.443px" viewBox="0 0 60.3 57.443" enable-background="new 0 0 60.3 57.443" xml:space="preserve">
<pattern  width="10" height="10" patternUnits="userSpaceOnUse" id="New_Pattern_Swatch_7" viewBox="0 -10 10 10" overflow="visible">
	<g>
		<polygon fill="none" points="0,0 10,0 10,-10 0,-10 		"/>
		<polygon fill="#FFFFFF" points="10,-7.25 0,-7.25 0,-6.7 10,-6.7 		"/>
		<polygon fill="#FFFFFF" points="10,-9 0,-9 0,-8.8 10,-8.8 		"/>
		<polygon fill="#FFFFFF" points="10,-4 0,-4 0,-3.672 10,-3.672 		"/>
		<polygon fill="#FFFFFF" points="10,-6.05 0,-6.05 0,-5 10,-5 		"/>
		<polygon fill="#FFFFFF" points="10,-1.672 0,-1.672 0,-1.542 10,-1.542 		"/>
		<polygon fill="#FFFFFF" points="10,-0.792 0,-0.792 0,-0.1 10,-0.1 		"/>
		<polygon fill="#166B8F" points="10,-10 0,-10 0,-9 10,-9 		"/>
		<polygon fill="#166B8F" points="10,-3.672 0,-3.672 0,-1.672 10,-1.672 		"/>
		<polygon fill="#166B8F" points="10,-1.542 0,-1.542 0,-0.792 10,-0.792 		"/>
		<polygon fill="#166B8F" points="10,-5 0,-5 0,-4 10,-4 		"/>
		<polygon fill="#166B8F" points="10,-6.7 0,-6.7 0,-6.05 10,-6.05 		"/>
		<polygon fill="#166B8F" points="10,-8.8 0,-8.8 0,-7.25 10,-7.25 		"/>
		<polygon fill="#166B8F" points="0,-0.1 0,0 10,0 10,-0.1 		"/>
	</g>
</pattern>
<pattern  width="10" height="10" patternUnits="userSpaceOnUse" id="New_Pattern_Swatch_8" viewBox="0 -10 10 10" overflow="visible">
	<g>
		<polygon fill="none" points="0,0 10,0 10,-10 0,-10 		"/>
		<polygon fill="#FFFFFF" points="10,-7.25 0,-7.25 0,-6.7 10,-6.7 		"/>
		<polygon fill="#FFFFFF" points="10,-9 0,-9 0,-8.8 10,-8.8 		"/>
		<polygon fill="#FFFFFF" points="10,-4 0,-4 0,-3.672 10,-3.672 		"/>
		<polygon fill="#FFFFFF" points="10,-6.05 0,-6.05 0,-5 10,-5 		"/>
		<polygon fill="#FFFFFF" points="10,-1.672 0,-1.672 0,-1.542 10,-1.542 		"/>
		<polygon fill="#FFFFFF" points="10,-0.792 0,-0.792 0,-0.1 10,-0.1 		"/>
		<polygon fill="#E6C5AE" points="10,-10 0,-10 0,-9 10,-9 		"/>
		<polygon fill="#E6C5AE" points="10,-3.672 0,-3.672 0,-1.672 10,-1.672 		"/>
		<polygon fill="#E6C5AE" points="10,-1.542 0,-1.542 0,-0.792 10,-0.792 		"/>
		<polygon fill="#E6C5AE" points="10,-5 0,-5 0,-4 10,-4 		"/>
		<polygon fill="#E6C5AE" points="10,-6.7 0,-6.7 0,-6.05 10,-6.05 		"/>
		<polygon fill="#E6C5AE" points="10,-8.8 0,-8.8 0,-7.25 10,-7.25 		"/>
		<polygon fill="#E6C5AE" points="0,-0.1 0,0 10,0 10,-0.1 		"/>
	</g>
</pattern>
<g id="Frame-2">
	<g id="Background">
		
			<pattern  id="SVGID_1_" xlink:href="#New_Pattern_Swatch_7" patternTransform="matrix(3.5619 -0.3744 0.3744 3.5619 23676.1426 17561.9824)">
		</pattern>
		<path fill="url(#SVGID_1_)" d="M13.943,22.662 M15.979,32.725c-2.798,4.411-7.629,13.439-0.113,17.896
			c2.159-0.933,5.63,0.308,7.986,1.488c0.036-0.02,0.053-0.029,0.082-0.045c-0.045,0.025-0.082,0.045-0.082,0.045
			c6.688-3.719,16.962,4.25,36.048,3c-28.748-5.584-7.717-29.011-30.767-27.876L15.979,32.725z M24.103,51.97
			C24.185,51.924,24.166,51.935,24.103,51.97L24.103,51.97z"/>
		
			<pattern  id="SVGID_2_" xlink:href="#New_Pattern_Swatch_7" patternTransform="matrix(1.9786 -0.208 0.208 1.9786 9546.75 6173.7324)">
		</pattern>
		<path fill="url(#SVGID_2_)" d="M13.943,22.662 M15.979,32.725c-2.798,4.411-7.629,13.439-0.113,17.896
			c2.159-0.933,5.63,0.308,7.986,1.488c0.036-0.02,0.053-0.029,0.082-0.045c-0.045,0.025-0.082,0.045-0.082,0.045
			c6.688-3.719,16.962,4.25,36.048,3c-28.748-5.584-7.717-29.011-30.767-27.876L15.979,32.725z M24.103,51.97
			C24.185,51.924,24.166,51.935,24.103,51.97L24.103,51.97z"/>
		
			<pattern  id="SVGID_3_" xlink:href="#New_Pattern_Swatch_7" patternTransform="matrix(1.1279 -0.7048 0.7048 1.1279 6689.417 -4666.7778)">
		</pattern>
		<path fill="url(#SVGID_3_)" d="M14.448,10.782c2.433,1.029,15.189-1.879,25.179,9.408c-0.472-2.843-1.657-8.382-5.13-9.495
			l0.186-2.601c3.582-1.58,12.412-3.546,16.356-4.011c-5.268-7.835-25.625-2.601-31.365,1.374C15.723-2.667,7.904,5.262,2.046,2.424
			C0.963,9.395,12.229,12.542,14.448,10.782z"/>
		
			<pattern  id="SVGID_4_" xlink:href="#New_Pattern_Swatch_8" patternTransform="matrix(0.788 -0.6157 0.6157 0.788 3237.3691 -6681.0869)">
		</pattern>
		<path fill="url(#SVGID_4_)" d="M31.5,11.757c-0.342,7.995-1.903,15.042-4.083,15.868c-4.503,2.482-13.743-0.443-18.061-7.337
			c0,0,2.159-5.788,4.331-6.085l3.464-3.42L31.5,11.757z"/>
	</g>
	<g id="Stars_1_">
		<polygon fill="#FFFFFF" points="22.176,41.202 21.216,40.413 20.022,40.755 20.475,39.597 19.779,38.568 21.021,38.643 
			21.786,37.662 22.098,38.865 23.268,39.288 22.218,39.96 		"/>
		<polygon fill="#FFFFFF" points="30.672,45.726 31.32,44.037 30.297,42.543 32.103,42.639 33.207,41.202 33.675,42.951 
			35.382,43.554 33.864,44.541 33.816,46.35 32.409,45.213 		"/>
		<polygon fill="#FFFFFF" points="28.707,35.805 28.428,35.076 27.672,34.89 28.278,34.401 28.221,33.624 28.875,34.05 
			29.595,33.756 29.391,34.509 29.895,35.103 29.115,35.142 		"/>
		<polygon fill="#FFFFFF" points="22.914,49.167 21.255,48.645 19.884,49.716 19.869,47.979 18.426,47.004 20.076,46.452 
			20.556,44.781 21.591,46.179 23.328,46.116 22.32,47.532 		"/>
		<polygon fill="#FFFFFF" points="41.526,51.993 40.539,51.684 39.729,52.323 39.717,51.291 38.859,50.715 39.837,50.385 
			40.119,49.392 40.734,50.22 41.766,50.181 41.169,51.024 		"/>
	</g>
	<path id="Eye_1_" fill="#020202" stroke="#000000" stroke-width="0.9" stroke-linecap="round" stroke-linejoin="round" d="
		M17.574,15.442c-0.019,0.419-0.291,0.896-0.774,1.164c-0.651,0.361-1.197-0.119-0.876-0.576c0.256-0.365,0.324-1.04,0.876-1.04
		C17.151,14.991,17.594,14.991,17.574,15.442z"/>
	<g id="foot2">
		<g>
			<path d="M21.41,53.169c-0.287,0.17-0.526,0.328-0.704,0.617c-0.08,0.131-0.132,0.269-0.187,0.411
				c0.083-0.029,0.167-0.059,0.251-0.088c-0.162,0.047-0.32,0.106-0.473,0.176c-0.915,0.379-1.837,0.828-2.417,1.662
				c-0.058,0.083-0.129,0.222-0.013,0.302c0.641,0.445,1.642,0.39,2.393,0.499c0.706,0.102,1.568-0.105,2.103-0.586
				c0.528-0.476,0.57-1.277,0.97-1.846c0.291-0.414,0.912-0.953,0.89-1.488c-0.018-0.448-1.763-0.125-1.738,0.466
				c0.008,0.211-0.431,0.594-0.547,0.771c-0.215,0.326-0.438,0.624-0.604,0.98c-0.084,0.18-0.143,0.375-0.209,0.562
				c-0.021,0.057-0.042,0.113-0.064,0.17c-0.096,0.177-0.1,0.206-0.009,0.088c-0.394-0.057-1.229-0.027-1.558-0.256
				c-0.004,0.101-0.009,0.201-0.013,0.302c0.564-0.813,1.36-0.821,2.119-1.301c0.201-0.127,0.366-0.237,0.517-0.422
				c0.141-0.172,0.146-0.516,0.339-0.629C23.46,52.961,21.899,52.879,21.41,53.169L21.41,53.169z"/>
		</g>
	</g>
	<g id="foot1">
		<g>
			<g>
				<path d="M33.254,55.24c0.335,0.256,0.546,0.494,0.483,0.951c0.115-0.102,0.231-0.204,0.346-0.305
					c-0.452,0.222-0.894,0.462-1.339,0.697c-0.63,0.333-0.935,0.549-1.474,0.014c-0.303-0.3-0.492-0.821-0.192-1.169
					c0.127-0.148,0.293-0.259,0.449-0.374c0.53-0.385,0.156,0.125-0.236-0.147c0.439,0.305,1.97-0.389,1.629-0.626
					c-0.792-0.55-2.075,0.188-2.748,0.633c-0.943,0.625-1.294,1.351-0.532,2.308c0.898,1.127,2.554,0.468,3.591-0.032
					c0.665-0.32,1.447-0.633,2.044-1.065c0.593-0.429,0.005-1.207-0.394-1.511C34.463,54.293,32.907,54.975,33.254,55.24
					L33.254,55.24z"/>
			</g>
		</g>
	</g>
	<g id="Painting">
		<g id="XMLID_3_">
			<g>
				<path d="M35.511,17.718c-0.792,0.99,1.764,0.966,1.314,2.007c-0.246,0.567-1.362,0.354-1.89,0.387
					c-0.912,0.057-1.827,0.195-2.511,0.339c-0.015,0.012-0.033,0.027-0.048,0.042c-0.009,0.024-0.015,0.051-0.027,0.075
					c0.735,1.164,3.045,0.399,3.423,1.914c-0.06,0.063-0.132,0.111-0.204,0.153c-0.012,0.012-0.027,0.018-0.039,0.027
					c0.024,0.399,0.429,0.699,0.333,1.119c-1.242,0.474-2.631-0.501-3.912-0.105c0.177,0.678,1.011,1.173,0.858,1.971
					c-0.621,0.147-1.197-0.543-1.836-0.429c-0.111,0.42,0.417,0.663,0.363,1.074c-0.57,0.225-1.104-0.333-1.692-0.222
					c-0.474-0.273-0.612-1.347-0.618-1.836c-0.003-0.351-0.087-0.573-0.15-0.873c-0.138-0.675-0.042-1.674,0.006-2.337
					c0.186-2.652,1.476-5.019,2.433-7.425c0.15-0.375,0.426-0.879,0.747-1.143c0.588,0.309,1.143,0.696,1.644,1.188
					c0.909,0.825,1.47,1.086,2.547,1.737c-0.045,0.378-0.504,0.324-0.732,0.522c0.222,0.525,0.933,0.891,0.852,1.545
					C36.042,17.562,35.718,17.454,35.511,17.718z"/>
				<path d="M12.27,25.167c0.186-0.051,0.375-0.096,0.567-0.144c4.98,0.369,6.474-1.368,7.713-3.279
					c0.999,1.698,2.886,5.586,4.311,7.188c-0.798,0-2.412-0.138-3.111-0.438c0.405,0.336,0.633,0.978,0.774,1.749l-3.768,1.305
					c-0.087-0.084-0.177-0.168-0.27-0.255c-0.015,0.123-0.03,0.243-0.042,0.363l-0.399,0.138l0.303,0.237
					c-0.096,0-0.174-0.036-0.303,0.024c-0.702,0.315-1.566,1.821-1.929,2.574c-0.531-0.828-0.948-1.641-1.068-2.235
					c-1.887,1.704-3.534,4.899-3.534,7.299c-0.3-1.899-0.864-5.499-1.065-7.401c-1.5,0.801-2.4,1.902-4.101,2.4
					c-1.2,0.3-2.799,0.702-4.098,0.702c3.84-3.123,5.037-3.621,7.398-4.8c-4.5-0.06-6.399,0.399-8.898-0.9
					C4.773,27.969,8.049,26.274,12.27,25.167z"/>
				<path d="M22.524,30.243c0.273,1.515,0.192,3.522,0.39,4.65c-2.325-1.419-2.865-2.109-4.158-3.345L22.524,30.243z"/>
			</g>
			<g>
				<path fill="none" stroke="#000000" stroke-width="2" stroke-linecap="round" d="M22.326,52.911
					c0.375,0.168,0.753,0.357,1.176,0.282"/>
				<path fill="none" stroke="#000000" stroke-width="2" stroke-linecap="round" d="M42.453,7.149
					c0.363,0.279,0.846,0.078,1.257,0.243"/>
				<path fill="none" stroke="#000000" stroke-width="2" stroke-linecap="round" d="M42.453,7.149
					c-0.333,0.042-0.669,0.015-0.993-0.066"/>
				<path fill="none" stroke="#000000" stroke-width="2" stroke-linecap="round" d="M41.46,7.083
					c-0.261,0.27-0.648,0.285-0.996,0.324"/>
				<path fill="none" stroke="#000000" stroke-width="2" stroke-linecap="round" d="M22.377,5.457
					c-0.786,0.57-1.65,1.584-2.709,1.374"/>
				<path fill="none" stroke="#000000" stroke-width="2" stroke-linecap="round" d="M22.377,5.457
					c3.492-2.418,7.11-3.603,10.677-4.269c1.404-0.261,2.778-0.333,4.284-0.402c2.898-0.138,6.789,0.147,9.462,0.408
					c1.47,0.144,3.45,0.39,5.049,1.317c0.693,0.402,1.431,0.885,1.893,1.572c-3.084,0.735-6.504,1.425-9.363,2.277
					c-0.597,0.177-1.587,0.309-1.926,0.789"/>
				<path fill="none" stroke="#000000" stroke-width="2" stroke-linecap="round" d="M41.46,7.083
					c-0.219-0.363-0.417-0.828-0.834-0.999c-0.291,0.357-0.249,0.894-0.162,1.323"/>
				<path fill="none" stroke="#000000" stroke-width="2" stroke-linecap="round" stroke-linejoin="round" d="M23.502,53.193
					c0.702-0.39,1.239-1.302,2.046-1.329c0.345,1.635,2.217,1.023,3.327,1.173c1.068,0.144,1.845,0.237,2.664,0.081
					c0.684-0.129,1.614-0.606,2.415-0.444c0.951,0.198,0.759,1.638,1.74,1.86c1.074,0.246,2.727-1.737,3.873-1.449
					c0.597,0.15,0.597,0.921,0.84,1.587c0.267,0.726,0.609,1.395,0.99,1.638c0.504,0.324,1.284,0.075,1.545,0.009
					c1.299-0.333,3.018-0.99,4.149-1.239c0.591-0.132,1.257-0.225,1.8-0.087c1.263,0.324,1.665,1.38,3.024,1.623
					c0.771,0.138,1.56,0.06,2.448,0.012c1.215-0.066,3.927-0.573,5.187-0.435l-0.921-0.162l-2.877-1.14
					c-1.2,0.102-3.3-1.299-4.602-1.8c-1.299-0.399-2.598-0.999-3.798-1.698c-2.4-1.401-4.5-2.301-5.7-5.001
					c-1.401-2.799-1.701-5.901-2.502-8.901c-1.701-5.7-4.899-9.198-11.001-9.198l-5.625,1.95l-3.768,1.305l-0.312,0.108
					l-0.399,0.138l0.303,0.237c-0.096,0-0.174-0.036-0.303,0.024c-0.702,0.315-1.566,1.821-1.929,2.574
					c-0.027,0.057-0.054,0.108-0.075,0.156c-0.312,0.681-0.762,1.308-1.089,1.977c-0.339,0.696-0.579,1.419-0.78,2.16
					c-0.234,0.861-0.54,1.686-0.57,2.532c-0.021,0.627,0.087,1.44,0.102,2.094c0.021,0.888-0.039,1.623,0.126,2.469
					c0.153,0.786,0.351,1.557,0.576,2.379c0.309,1.149,0.246,2.448,1.11,3.309c0.459-0.198,0.666-0.885,1.221-0.84
					c0.849,0.624,1.935,1.32,3.198,1.266c0.867-0.036,2.073-0.597,2.391,0.78L23.502,53.193z"/>
				<path fill="none" stroke="#000000" stroke-width="2" stroke-linecap="round" stroke-linejoin="round" d="M13.674,23.712
					c0.243-0.099,0.72-0.159,1.032-0.216c0.678-0.123,1.713-0.564,2.175-0.447c0.18,0.042,0.33,0.189,0.405,0.348"/>
				<path fill="none" stroke="#000000" stroke-width="2" stroke-linecap="round" stroke-linejoin="round" d="M13.674,23.712
					c-0.483,0.45-0.996,0.927-1.404,1.455c-0.291,0.375-0.528,0.777-0.666,1.209c-0.234,0.732,0,1.239,0.648,1.86"/>
				<path fill="none" stroke="#000000" stroke-width="2" stroke-linecap="round" stroke-linejoin="round" d="M17.151,30.534
					c0.393-0.222,0.885-0.339,1.335-0.282"/>
				<path fill="none" stroke="#000000" stroke-width="2" stroke-linecap="round" stroke-linejoin="round" d="M40.464,7.407
					c-0.183,0.501-0.888,0.207-1.308,0.225"/>
				<path fill="none" stroke="#000000" stroke-width="2" stroke-linecap="round" stroke-linejoin="round" d="M39.156,7.632
					c-0.18,0.24-0.498,0.267-0.774,0.276"/>
				<path fill="none" stroke="#000000" stroke-width="2" stroke-linecap="round" stroke-linejoin="round" d="M38.382,7.908
					c-0.18,0.36-0.672,0.201-0.996,0.186c-0.255-0.354-0.276-0.846-0.618-1.137"/>
				<path fill="none" stroke="#000000" stroke-width="2" stroke-linecap="round" stroke-linejoin="round" d="M39.156,7.632
					c-0.144-0.267-0.444-0.423-0.738-0.447c-0.156,0.207-0.108,0.492-0.036,0.723"/>
				<path fill="none" stroke="#000000" stroke-width="2" stroke-linecap="round" stroke-linejoin="round" d="M16.149,14.091
					c1.002-1.398,2.7-0.399,3.102,0.9"/>
				<path fill="none" stroke="#000000" stroke-width="2" stroke-linecap="round" stroke-linejoin="round" d="M13.674,23.712
					c-0.21-0.288-0.723-0.171-0.99-0.24c-1.362-0.363-0.264-1.833,0.288-2.865c-0.873-0.555-1.449,0.885-2.334,0.714
					c-0.621-0.354-1.461-0.708-1.41-1.689c0.03-0.567,0.6-2.004,1.074-2.763c0.411-0.657,0.846-1.758,1.434-2.094
					c0.219-0.129,0.939-0.243,1.152-0.225c0.573,0.045,0.831,0.573,1.5,0.408c0.219-1.275,0.966-2.523,2.061-3.201"/>
				<path fill="none" stroke="#000000" stroke-width="2" stroke-linecap="round" stroke-linejoin="round" d="M37.2,10.695
					c1.461,0.468,2.235,2.31,3.231,3.765c0.693,1.017,1.587,2.025,1.782,3.072c0.156,0.861-0.033,1.755,0.117,2.658"/>
				<path fill="none" stroke="#000000" stroke-width="2" stroke-linecap="round" stroke-linejoin="round" d="M36.252,15.381
					c1.134,1.038,0.948,0.549,2.13,1.113c0.879,0.417,2.604,0.9,3.948,3.696"/>
				<path fill="none" stroke="#000000" stroke-width="2" stroke-linecap="round" stroke-linejoin="round" d="M36.252,15.381
					c-0.045,0.378-0.504,0.324-0.732,0.522c0.222,0.525,0.933,0.891,0.852,1.545c-0.33,0.114-0.654,0.006-0.861,0.27
					c-0.792,0.99,1.764,0.966,1.314,2.007c-0.246,0.567-1.362,0.354-1.89,0.387c-0.912,0.057-1.827,0.195-2.511,0.339
					c-0.015,0.012-0.033,0.027-0.048,0.042c-0.009,0.024-0.015,0.051-0.027,0.075c0.735,1.164,3.045,0.399,3.423,1.914
					c-0.06,0.063-0.132,0.111-0.204,0.153c-0.012,0.012-0.027,0.018-0.039,0.027"/>
				<path fill="none" stroke="#000000" stroke-width="2" stroke-linecap="round" stroke-linejoin="round" d="M36.252,15.381
					c-1.077-0.651-1.638-0.912-2.547-1.737c-0.501-0.492-1.056-0.879-1.644-1.188c-1.764-0.924-3.843-1.143-5.793-1.386
					c-0.696-0.087-1.389-0.195-2.088-0.288c-1.575-0.21-3.168-0.048-4.755-0.198c-0.783-0.075-1.536-0.189-2.274-0.339
					c-1.383-0.27-2.718-0.654-4.095-1.101c-0.831-0.267-1.752-0.609-2.544-1.122C9.897,7.629,9.273,7.323,8.628,6.888
					c-0.867-0.582-1.587-1.29-2.529-1.755C5.919,4.86,5.739,4.578,5.502,4.35c-0.315-0.534-1.23-0.981-0.753-1.926
					C5.442,2.76,6.018,3.06,6.687,3.243c1.323,0.363,3.261,0.786,4.659,0.663c1.929-0.168,4.263-0.978,6.537-0.786
					c1.173,0.099,2.178,0.864,3.315,1.575c0.369,0.228,0.852,0.441,1.179,0.762"/>
				<path fill="none" stroke="#000000" stroke-width="2" stroke-linecap="round" stroke-linejoin="round" d="M35.529,22.662
					c0.024,0.399,0.429,0.699,0.333,1.119c-1.242,0.474-2.631-0.501-3.912-0.105c0.177,0.678,1.011,1.173,0.858,1.971
					c-0.621,0.147-1.197-0.543-1.836-0.429c-0.111,0.42,0.417,0.663,0.363,1.074c-0.57,0.225-1.104-0.333-1.692-0.222
					c-0.474-0.273-0.612-1.347-0.618-1.836c-0.003-0.351-0.087-0.573-0.15-0.873c-0.138-0.675-0.042-1.674,0.006-2.337
					c0.186-2.652,1.476-5.019,2.433-7.425c0.15-0.375,0.426-0.879,0.747-1.143"/>
				
					<line fill="none" stroke="#000000" stroke-width="2" stroke-linecap="round" stroke-linejoin="round" x1="29.643" y1="26.07" x2="28.149" y2="28.293"/>
				
					<line fill="none" stroke="#000000" stroke-width="2" stroke-linecap="round" stroke-linejoin="round" x1="17.151" y1="10.245" x2="16.449" y2="11.319"/>
				
					<line fill="none" stroke="#000000" stroke-width="2" stroke-linecap="round" stroke-linejoin="round" x1="37.386" y1="8.094" x2="37.2" y2="10.695"/>
				<path fill="none" stroke="#000000" stroke-width="2" stroke-linecap="round" stroke-linejoin="round" d="M12.837,25.023
					c-0.192,0.048-0.381,0.093-0.567,0.144c-4.221,1.107-7.497,2.802-11.52,4.527c2.499,1.299,4.398,0.84,8.898,0.9
					c-2.361,1.179-3.558,1.677-7.398,4.8c1.299,0,2.898-0.402,4.098-0.702c1.701-0.498,2.601-1.599,4.101-2.4
					c0.201,1.902,0.765,5.502,1.065,7.401c0-2.4,1.647-5.595,3.534-7.299c0.12,0.594,0.537,1.407,1.068,2.235
					c0.804,1.263,1.869,2.559,2.532,3.165c-0.378-2.283-0.456-3.843-0.204-6.138c0.012-0.12,0.027-0.24,0.042-0.363
					c0.093,0.087,0.183,0.171,0.27,0.255c1.293,1.236,1.833,1.926,4.158,3.345c-0.198-1.128-0.117-3.135-0.39-4.65
					c-0.141-0.771-0.369-1.413-0.774-1.749c0.699,0.3,2.313,0.438,3.111,0.438c-1.425-1.602-3.312-5.49-4.311-7.188
					C19.311,23.655,17.817,25.392,12.837,25.023"/>
			</g>
		</g>
	</g>
</g>
<g id="Frame-1" display="none">
	<g id="Coloring" display="inline">
		<path fill="none" d="M22.378,5.457"/>
		
			<pattern  id="SVGID_5_" xlink:href="#New_Pattern_Swatch_7" patternTransform="matrix(1.5312 -0.4975 0.4975 1.5312 8282.4365 266.6172)">
		</pattern>
		<path fill="url(#SVGID_5_)" d="M23.464,54.453c0.892,0.917,5.791,0.165,7.032-0.407c0.098-0.045,8.612,1.982,8.227,0.901
			c1.965,5.518,4.416-0.075,7.963,0.825c2.065,0.53,1.938,2.328,4.492,2.221c2.54-0.106,4.523-1.049,6.975-1.647l-3.798-0.192
			c-1.92,0.163-7.069-2.723-8.4-3.498c-2.4-1.401-4.195-3.193-5.395-5.893c-1.401-2.799-2.638-4.838-3.438-7.838
			c-1.701-5.7-4.268-9.369-10.369-9.369l-10.104,3.501l0.303,0.237c-0.096,0-0.174-0.036-0.303,0.024
			c-0.756,0.339-1.695,2.052-2.004,2.73c-1.565,3.417-4.622,17.996-3.204,19.55c1.663,1.822,7.058-2.694,8.686-1.275
			C20.126,54.322,21.286,54.012,23.464,54.453C24.697,55.719,21.286,54.012,23.464,54.453
			C24.356,55.369,21.286,54.012,23.464,54.453z"/>
		<path fill="none" d="M19.319,24.783"/>
		<path fill="none" d="M17.297,26.762"/>
		<path fill="none" d="M34.114,22.115"/>
		<path fill="none" d="M35.53,22.663"/>
		
			<pattern  id="SVGID_6_" xlink:href="#New_Pattern_Swatch_7" patternTransform="matrix(0.6464 1.776 -1.776 0.6464 -17162.9004 11535.4238)">
		</pattern>
		<path fill="url(#SVGID_6_)" d="M23.528,6.584C29.715,2.3,50.313-2.599,55.9,5.71C35.393,8.81,40.818,6.205,44.291,21.443
			C38.73,14.248,4.352,10.247,4.4,4.772C4.401,4.729,20.985,4.087,23.528,6.584"/>
		<path fill="url(#New_Pattern_Swatch_8)" stroke="url(#New_Pattern_Swatch_8)" d="M13.674,23.712
			c-2.153,1.232-2.627,2.741-1.422,4.524c27.062,6.507,9.638-7.42,19.809-15.78l-14.91-2.211c-0.5,0.972-2.763,4.714-2.763,4.713
			c-1.692,0.417-8.812,3.478-3.75,6.363c0.885,0.171,1.461-1.269,2.334-0.714C11.813,22.628,12.047,23.664,13.674,23.712"/>
	</g>
	<g id="Stars_2_" display="inline">
		<polygon fill="#FFFFFF" points="22.176,41.202 21.216,40.413 20.022,40.755 20.475,39.597 19.779,38.568 21.021,38.643 
			21.786,37.662 22.098,38.865 23.268,39.288 22.218,39.96 		"/>
		<polygon fill="#FFFFFF" points="30.672,45.726 31.32,44.037 30.297,42.543 32.103,42.639 33.207,41.202 33.675,42.951 
			35.382,43.554 33.864,44.541 33.816,46.35 32.409,45.213 		"/>
		<polygon fill="#FFFFFF" points="28.707,35.805 28.428,35.076 27.672,34.89 28.278,34.401 28.221,33.624 28.875,34.05 
			29.595,33.756 29.391,34.509 29.895,35.103 29.115,35.142 		"/>
		<polygon fill="#FFFFFF" points="22.914,49.167 21.255,48.645 19.884,49.716 19.869,47.979 18.426,47.004 20.076,46.452 
			20.556,44.781 21.591,46.179 23.328,46.116 22.32,47.532 		"/>
		<polygon fill="#FFFFFF" points="41.526,51.993 40.539,51.684 39.729,52.323 39.717,51.291 38.859,50.715 39.837,50.385 
			40.119,49.392 40.734,50.22 41.766,50.181 41.169,51.024 		"/>
	</g>
	
		<path id="Eye_2_" display="inline" fill="#020202" stroke="#000000" stroke-width="0.9" stroke-linecap="round" stroke-linejoin="round" d="
		M17.574,15.442c-0.019,0.419-0.291,0.896-0.774,1.164c-0.651,0.361-1.197-0.119-0.876-0.576c0.256-0.365,0.324-1.04,0.876-1.04
		C17.151,14.991,17.594,14.991,17.574,15.442z"/>
	<g id="foot2_1_" display="inline">
		<g>
			<path d="M28.41,51.169c-0.287,0.17-0.526,0.328-0.704,0.617c-0.08,0.131-0.132,0.269-0.187,0.411
				c0.083-0.029,0.167-0.059,0.251-0.088c-0.162,0.047-0.32,0.106-0.473,0.176c-0.915,0.379-1.837,0.828-2.417,1.662
				c-0.058,0.083-0.129,0.222-0.013,0.302c0.641,0.445,1.642,0.39,2.393,0.499c0.706,0.102,1.568-0.105,2.103-0.586
				c0.528-0.476,0.57-1.277,0.97-1.846c0.291-0.414,0.912-0.953,0.89-1.488c-0.018-0.448-1.763-0.125-1.738,0.466
				c0.008,0.211-0.431,0.594-0.547,0.771c-0.215,0.326-0.438,0.624-0.604,0.98c-0.084,0.18-0.143,0.375-0.209,0.562
				c-0.021,0.057-0.042,0.113-0.064,0.17c-0.096,0.177-0.1,0.206-0.009,0.088c-0.394-0.057-1.229-0.027-1.558-0.256
				c-0.004,0.101-0.009,0.201-0.013,0.302c0.565-0.813,1.36-0.821,2.119-1.301c0.201-0.127,0.366-0.237,0.517-0.422
				c0.141-0.172,0.146-0.516,0.339-0.629C30.46,50.961,28.899,50.879,28.41,51.169L28.41,51.169z"/>
		</g>
	</g>
	<g id="foot1_1_" display="inline">
		<g>
			<g>
				<path d="M28.254,55.24c0.335,0.256,0.546,0.494,0.483,0.951c0.115-0.102,0.231-0.204,0.346-0.306
					c-0.452,0.223-0.894,0.463-1.339,0.697c-0.63,0.333-0.935,0.549-1.474,0.014c-0.303-0.3-0.492-0.821-0.192-1.169
					c0.127-0.148,0.293-0.259,0.449-0.374c0.53-0.385,0.156,0.125-0.236-0.147c0.439,0.305,1.97-0.389,1.629-0.626
					c-0.792-0.55-2.075,0.188-2.748,0.633c-0.943,0.625-1.294,1.351-0.532,2.308c0.898,1.127,2.554,0.468,3.591-0.032
					c0.665-0.32,1.447-0.633,2.044-1.065c0.593-0.429,0.005-1.207-0.394-1.511C29.463,54.293,27.907,54.975,28.254,55.24
					L28.254,55.24z"/>
			</g>
		</g>
	</g>
	<g id="XMLID_1_" display="inline">
		<g>
			<path d="M35.511,17.718c-0.792,0.99,1.764,0.966,1.314,2.007c-0.246,0.567-1.362,0.354-1.89,0.387
				c-0.912,0.057-1.827,0.195-2.511,0.339c-0.015,0.012-0.033,0.027-0.048,0.042c-0.009,0.024-0.015,0.051-0.027,0.075
				c0.735,1.164,3.045,0.399,3.423,1.914c-0.06,0.063-0.132,0.111-0.204,0.153c-0.012,0.012-0.027,0.018-0.039,0.027
				c0.024,0.399,0.429,0.699,0.333,1.119c-1.242,0.474-2.631-0.501-3.912-0.105c0.177,0.678,1.011,1.173,0.858,1.971
				c-0.621,0.147-1.197-0.543-1.836-0.429c-0.111,0.42,0.417,0.663,0.363,1.074c-0.57,0.225-1.104-0.333-1.692-0.222
				c-0.474-0.273-0.612-1.347-0.618-1.836c-0.003-0.351-0.087-0.573-0.15-0.873c-0.138-0.675-0.042-1.674,0.006-2.337
				c0.186-2.652,1.476-5.019,2.433-7.425c0.15-0.375,0.426-0.879,0.747-1.143c0.588,0.309,1.143,0.696,1.644,1.188
				c0.909,0.825,1.47,1.086,2.547,1.737c-0.045,0.378-0.504,0.324-0.732,0.522c0.222,0.525,0.933,0.891,0.852,1.545
				C36.042,17.562,35.718,17.454,35.511,17.718z"/>
			<path d="M12.276,25.158c0.186-0.045,0.372-0.09,0.561-0.135c4.98,0.369,6.474-1.368,7.713-3.279
				c0.999,1.698,2.886,5.586,4.311,7.188c-0.798,0-2.412-0.138-3.111-0.438c0.405,0.336,0.633,0.978,0.774,1.749l-3.768,1.305
				c-0.087-0.084-0.177-0.168-0.27-0.255c-0.015,0.123-0.03,0.243-0.042,0.363l-0.399,0.138l0.303,0.237
				c-0.096,0-0.174-0.036-0.303,0.024c-0.756,0.339-1.695,2.052-2.004,2.73c-0.006,0.012-0.012,0.024-0.018,0.036
				c-0.48-0.936-0.858-1.839-0.975-2.427c-1.887,1.704-4.299,5.325-4.299,7.725c-0.3-1.899-0.099-5.925-0.3-7.827
				c-1.5,0.801-2.4,1.902-4.101,2.4c-1.2,0.3-3.423,0.072-4.722,0.072c3.84-3.123,5.661-2.991,8.022-4.17
				c-4.5-0.06-6.399-1.002-8.898-2.301C4.773,26.568,8.052,26.157,12.276,25.158z"/>
			<path d="M22.524,30.243c0.273,1.515,0.192,3.522,0.39,4.65c-2.325-1.419-2.865-2.109-4.158-3.345L22.524,30.243z"/>
		</g>
		<g>
			<path fill="none" stroke="#000000" stroke-width="2" stroke-linecap="round" d="M42.453,7.149
				c0.363,0.279,0.846,0.078,1.257,0.243"/>
			<path fill="none" stroke="#000000" stroke-width="2" stroke-linecap="round" d="M42.453,7.149
				c-0.333,0.042-0.669,0.015-0.993-0.066"/>
			<path fill="none" stroke="#000000" stroke-width="2" stroke-linecap="round" d="M41.46,7.083
				c-0.261,0.27-0.648,0.285-0.996,0.324"/>
			<path fill="none" stroke="#000000" stroke-width="2" stroke-linecap="round" d="M22.377,5.457
				c-0.786,0.57-1.65,1.584-2.709,1.374"/>
			<path fill="none" stroke="#000000" stroke-width="2" stroke-linecap="round" d="M22.377,5.457
				c3.492-2.418,7.11-3.603,10.677-4.269c1.404-0.261,2.778-0.333,4.284-0.402c2.898-0.138,6.789,0.147,9.462,0.408
				c1.47,0.144,3.45,0.39,5.049,1.317c0.693,0.402,2.439,1.386,2.901,2.073c-3.585,0.54-7.512,0.924-10.371,1.776
				c-0.597,0.177-1.587,0.309-1.926,0.789"/>
			<path fill="none" stroke="#000000" stroke-width="2" stroke-linecap="round" d="M41.46,7.083
				c-0.219-0.363-0.417-0.828-0.834-0.999c-0.291,0.357-0.249,0.894-0.162,1.323"/>
			<path fill="none" stroke="#000000" stroke-width="2" stroke-linecap="round" stroke-linejoin="round" d="M16.023,34.821
				c-0.309,0.666-0.75,1.284-1.071,1.941c-0.339,0.696-0.579,1.419-0.78,2.16c-0.234,0.861-0.54,1.686-0.57,2.532
				c-0.021,0.627,0.087,1.44,0.102,2.094c0.021,0.888-0.039,1.623,0.126,2.469c0.153,0.786,0.351,1.557,0.576,2.379
				c0.309,1.149-0.663,3.066,0.201,3.927c0.459-0.198,1.137-0.897,1.692-0.852c0.849,0.624,1.11,0.768,2.373,0.714
				c0.867-0.036,1.761-0.075,2.85,0.876c0,0,1.161-0.312,3.339,0.129c1.233,1.266,2.904-0.303,4.014-0.153
				c1.068,0.144,1.026,0.393,1.845,0.237c0.684-0.129,1.632-0.924,2.433-0.762c0.951,0.198,0.987,1.785,1.968,2.007
				c1.074,0.246,3.3-1.722,4.446-1.434c0.597,0.15,0.597,0.921,0.84,1.587c0.267,0.726,0.978,1.284,1.359,1.527
				c0.504,0.324,0.915,0.186,1.176,0.12c1.299-0.333,2.211-1.473,3.342-1.722c0.591-0.132,1.257-0.225,1.8-0.087
				c1.263,0.324,1.431,1.941,2.79,2.184c0.771,0.138,2.601-0.018,3.489-0.066c1.215-0.066,2.982-1.008,5.187-1.545l-3.798-0.192
				c-1.2,0.102-3.3-1.299-4.602-1.8c-1.299-0.399-2.598-0.999-3.798-1.698c-2.4-1.401-5.841-1.71-7.041-4.41
				c-1.401-2.799-0.993-6.321-1.794-9.321c-1.701-5.7-4.266-9.369-10.368-9.369l-5.625,1.95l-3.768,1.305l-0.312,0.108l-0.399,0.138
				l0.303,0.237c-0.096,0-0.174-0.036-0.303,0.024c-0.756,0.339-1.695,2.052-2.004,2.73C16.035,34.797,16.029,34.809,16.023,34.821z
				"/>
			<path fill="none" stroke="#000000" stroke-width="2" stroke-linecap="round" stroke-linejoin="round" d="M13.674,23.712
				c0.243-0.099,0.72-0.159,1.032-0.216c0.678-0.123,1.713-0.564,2.175-0.447c0.18,0.042,0.33,0.189,0.405,0.348"/>
			<path fill="none" stroke="#000000" stroke-width="2" stroke-linecap="round" stroke-linejoin="round" d="M13.674,23.712
				c-0.48,0.447-0.99,0.921-1.398,1.446c-0.294,0.378-0.534,0.78-0.672,1.218c-0.234,0.732,0,1.239,0.648,1.86"/>
			<path fill="none" stroke="#000000" stroke-width="2" stroke-linecap="round" stroke-linejoin="round" d="M17.151,30.534
				c0.393-0.222,0.885-0.339,1.335-0.282"/>
			<path fill="none" stroke="#000000" stroke-width="2" stroke-linecap="round" stroke-linejoin="round" d="M40.464,7.407
				c-0.183,0.501-0.888,0.207-1.308,0.225"/>
			<path fill="none" stroke="#000000" stroke-width="2" stroke-linecap="round" stroke-linejoin="round" d="M39.156,7.632
				c-0.18,0.24-0.498,0.267-0.774,0.276"/>
			<path fill="none" stroke="#000000" stroke-width="2" stroke-linecap="round" stroke-linejoin="round" d="M38.382,7.908
				c-0.18,0.36-0.672,0.201-0.996,0.186c-0.255-0.354-0.276-0.846-0.618-1.137"/>
			<path fill="none" stroke="#000000" stroke-width="2" stroke-linecap="round" stroke-linejoin="round" d="M39.156,7.632
				c-0.144-0.267-0.444-0.423-0.738-0.447c-0.156,0.207-0.108,0.492-0.036,0.723"/>
			<path fill="none" stroke="#000000" stroke-width="2" stroke-linecap="round" stroke-linejoin="round" d="M16.149,14.091
				c1.002-1.398,2.7-0.399,3.102,0.9"/>
			<path fill="none" stroke="#000000" stroke-width="2" stroke-linecap="round" stroke-linejoin="round" d="M13.674,23.712
				c-0.21-0.288-0.723-0.171-0.99-0.24c-1.362-0.363-0.264-1.833,0.288-2.865c-0.873-0.555-1.449,0.885-2.334,0.714
				c-0.621-0.354-1.461-0.708-1.41-1.689c0.03-0.567,0.6-2.004,1.074-2.763c0.411-0.657,0.846-1.758,1.434-2.094
				c0.219-0.129,0.939-0.243,1.152-0.225c0.573,0.045,0.831,0.573,1.5,0.408c0.219-1.275,0.966-2.523,2.061-3.201"/>
			<path fill="none" stroke="#000000" stroke-width="2" stroke-linecap="round" stroke-linejoin="round" d="M37.2,10.695
				c1.461,0.468,2.235,2.31,3.231,3.765c0.693,1.017,2.022,2.841,2.709,5.856"/>
			<path fill="none" stroke="#000000" stroke-width="2" stroke-linecap="round" stroke-linejoin="round" d="M36.252,15.381
				c1.134,1.038,0.948,0.549,2.13,1.113c0.879,0.417,3.078,1.65,4.758,3.822"/>
			<path fill="none" stroke="#000000" stroke-width="2" stroke-linecap="round" stroke-linejoin="round" d="M36.252,15.381
				c-0.045,0.378-0.504,0.324-0.732,0.522c0.222,0.525,0.933,0.891,0.852,1.545c-0.33,0.114-0.654,0.006-0.861,0.27
				c-0.792,0.99,1.764,0.966,1.314,2.007c-0.246,0.567-1.362,0.354-1.89,0.387c-0.912,0.057-1.827,0.195-2.511,0.339
				c-0.015,0.012-0.033,0.027-0.048,0.042c-0.009,0.024-0.015,0.051-0.027,0.075c0.735,1.164,3.045,0.399,3.423,1.914
				c-0.06,0.063-0.132,0.111-0.204,0.153c-0.012,0.012-0.027,0.018-0.039,0.027"/>
			<path fill="none" stroke="#000000" stroke-width="2" stroke-linecap="round" stroke-linejoin="round" d="M36.252,15.381
				c-1.077-0.651-1.638-0.912-2.547-1.737c-0.501-0.492-1.056-0.879-1.644-1.188c-1.764-0.924-3.843-1.143-5.793-1.386
				c-0.696-0.087-1.389-0.195-2.088-0.288c-1.575-0.21-3.168-0.048-4.755-0.198c-0.783-0.075-1.536-0.189-2.274-0.339
				c-1.383-0.27-2.718-0.654-4.095-1.101c-0.831-0.267-1.752-0.609-2.544-1.122c-1.8-1.152-7.287-1.674-7.263-4.377
				C3.258,2.874,7.5,3.972,11.346,3.906c1.935-0.033,4.263-0.978,6.537-0.786c1.173,0.099,2.178,0.864,3.315,1.575
				c0.369,0.228,0.852,0.441,1.179,0.762"/>
			<path fill="none" stroke="#000000" stroke-width="2" stroke-linecap="round" stroke-linejoin="round" d="M35.529,22.662
				c0.024,0.399,0.429,0.699,0.333,1.119c-1.242,0.474-2.631-0.501-3.912-0.105c0.177,0.678,1.011,1.173,0.858,1.971
				c-0.621,0.147-1.197-0.543-1.836-0.429c-0.111,0.42,0.417,0.663,0.363,1.074c-0.57,0.225-1.104-0.333-1.692-0.222
				c-0.474-0.273-0.612-1.347-0.618-1.836c-0.003-0.351-0.087-0.573-0.15-0.873c-0.138-0.675-0.042-1.674,0.006-2.337
				c0.186-2.652,1.476-5.019,2.433-7.425c0.15-0.375,0.426-0.879,0.747-1.143"/>
			
				<line fill="none" stroke="#000000" stroke-width="2" stroke-linecap="round" stroke-linejoin="round" x1="29.643" y1="26.07" x2="28.149" y2="28.293"/>
			
				<line fill="none" stroke="#000000" stroke-width="2" stroke-linecap="round" stroke-linejoin="round" x1="17.151" y1="10.245" x2="16.449" y2="11.319"/>
			
				<line fill="none" stroke="#000000" stroke-width="2" stroke-linecap="round" stroke-linejoin="round" x1="37.386" y1="8.094" x2="37.2" y2="10.695"/>
			<path fill="none" stroke="#000000" stroke-width="2" stroke-linecap="round" stroke-linejoin="round" d="M12.837,25.023
				c-0.189,0.045-0.375,0.09-0.561,0.135c-4.224,0.999-7.503,1.41-11.526,3.135c2.499,1.299,4.398,2.241,8.898,2.301
				c-2.361,1.179-4.182,1.047-8.022,4.17c1.299,0,3.522,0.228,4.722-0.072c1.701-0.498,2.601-1.599,4.101-2.4
				c0.201,1.902,0,5.928,0.3,7.827c0-2.4,2.412-6.021,4.299-7.725c0.117,0.588,0.495,1.491,0.975,2.427
				c0.741,1.455,1.737,3,2.403,3.609c-0.381-2.283-0.255-4.419,0.018-6.774c0.012-0.12,0.027-0.24,0.042-0.363
				c0.093,0.087,0.183,0.171,0.27,0.255c1.293,1.236,1.833,1.926,4.158,3.345c-0.198-1.128-0.117-3.135-0.39-4.65
				c-0.141-0.771-0.369-1.413-0.774-1.749c0.699,0.3,2.313,0.438,3.111,0.438c-1.425-1.602-3.312-5.49-4.311-7.188
				C19.311,23.655,17.817,25.392,12.837,25.023"/>
		</g>
	</g>
</g>
</svg>
